module github.com/bnb-chain/node

go 1.17

require (
	github.com/Shopify/sarama v1.26.1
	github.com/cosmos/cosmos-sdk v0.50.2
	github.com/deathowl/go-metrics-prometheus v0.0.0-20200518174047-74482eab5bfb
	github.com/eapache/go-resiliency v1.1.0
	github.com/go-kit/kit v0.10.0
	github.com/google/btree v1.0.0
	github.com/gorilla/mux v1.8.0
	github.com/hashicorp/golang-lru v0.5.5-0.20210104140557-80c98217689d
	github.com/linkedin/goavro v0.0.0-20180427201934-fa8f6a30176c
	github.com/mitchellh/go-homedir v1.1.0
	github.com/natefinch/lumberjack v2.0.0+incompatible
	github.com/pkg/errors v0.9.1
	github.com/prometheus/client_golang v1.14.0
	github.com/spf13/cobra v1.5.0
	github.com/spf13/viper v1.8.1
	github.com/stretchr/testify v1.8.2
	github.com/tendermint/go-amino v0.15.0
	github.com/tendermint/iavl v0.12.4
	github.com/tendermint/tendermint v0.35.9
	github.com/tidwall/gjson v1.14.3
	go.uber.org/ratelimit v0.1.0
)

require (
	contrib.go.opencensus.io/exporter/jaeger v0.2.1 // indirect
	github.com/BurntSushi/toml v1.2.1 // indirect
	github.com/DataDog/zstd v1.5.2 // indirect
	github.com/aristanetworks/goarista v0.0.0-20200805130819-fd197cf57d96 // indirect
	github.com/bartekn/go-bip39 v0.0.0-20171116152956-a05967ea095d // indirect
	github.com/beorn7/perks v1.0.1 // indirect
	github.com/bgentry/speakeasy v0.1.0 // indirect
	github.com/bnb-chain/ics23 v0.1.0 // indirect
	github.com/btcsuite/btcd/btcec/v2 v2.3.2 // indirect
	github.com/btcsuite/btcd/btcutil v1.1.3 // indirect
	github.com/cespare/xxhash/v2 v2.2.0 // indirect
	github.com/chzyer/readline v1.5.1 // indirect
	github.com/cosmos/go-bip39 v0.0.0-20180819234021-555e2067c45d // indirect
	github.com/cosmos/ledger-go v0.9.2 // indirect
	github.com/cpuguy83/go-md2man/v2 v2.0.2 // indirect
	github.com/davecgh/go-spew v1.1.1 // indirect
	github.com/deckarep/golang-set/v2 v2.1.0 // indirect
	github.com/decred/dcrd/dcrec/secp256k1/v4 v4.1.0 // indirect
	github.com/eapache/go-xerial-snappy v0.0.0-20180814174437-776d5712da21 // indirect
	github.com/eapache/queue v1.1.0 // indirect
	github.com/etcd-io/bbolt v1.3.3 // indirect
	github.com/ethereum/go-ethereum v1.11.3 // indirect
	github.com/ferranbt/fastssz v0.0.0-20210526181520-7df50c8568f8 // indirect
	github.com/fsnotify/fsnotify v1.6.0 // indirect
	github.com/go-logfmt/logfmt v0.5.1 // indirect
	github.com/go-logr/logr v1.2.3 // indirect
	github.com/go-ole/go-ole v1.2.6 // indirect
	github.com/go-playground/locales v0.14.1 // indirect
	github.com/go-playground/universal-translator v0.18.1 // indirect
	github.com/go-playground/validator/v10 v10.13.0 // indirect
	github.com/go-stack/stack v1.8.1 // indirect
	github.com/gogo/protobuf v1.3.2 // indirect
	github.com/golang/groupcache v0.0.0-20200121045136-8c9f03a8e57e // indirect
	github.com/golang/protobuf v1.5.3 // indirect
	github.com/golang/snappy v0.0.4 // indirect
	github.com/google/go-cmp v0.5.9 // indirect
	github.com/google/gofuzz v1.2.0 // indirect
	github.com/google/uuid v1.3.0 // indirect
	github.com/gorilla/websocket v1.5.0 // indirect
	github.com/grpc-ecosystem/grpc-gateway/v2 v2.0.1 // indirect
	github.com/hashicorp/hcl v1.0.0 // indirect
	github.com/herumi/bls-eth-go-binary v0.0.0-20210917013441-d37c07cfda4e // indirect
	github.com/inconshreveable/mousetrap v1.0.0 // indirect
	github.com/jmhodges/levigo v1.0.0 // indirect
	github.com/json-iterator/go v1.1.12 // indirect
	github.com/juju/ansiterm v0.0.0-20180109212912-720a0952cc2a // indirect
	github.com/k0kubun/go-ansi v0.0.0-20180517002512-3bf9e2903213 // indirect
	github.com/klauspost/cpuid/v2 v2.2.4 // indirect
	github.com/leodido/go-urn v1.2.3 // indirect
	github.com/libp2p/go-buffer-pool v0.1.0 // indirect
	github.com/logrusorgru/aurora v2.0.3+incompatible // indirect
	github.com/lunixbochs/vtclean v1.0.0 // indirect
	github.com/magiconair/properties v1.8.5 // indirect
	github.com/manifoldco/promptui v0.7.0 // indirect
	github.com/mattn/go-colorable v0.1.13 // indirect
	github.com/mattn/go-isatty v0.0.18 // indirect
	github.com/mattn/go-runewidth v0.0.14 // indirect
	github.com/matttproud/golang_protobuf_extensions v1.0.4 // indirect
	github.com/minio/highwayhash v1.0.2 // indirect
	github.com/minio/sha256-simd v1.0.0 // indirect
	github.com/mitchellh/colorstring v0.0.0-20190213212951-d06e56a500db // indirect
	github.com/mitchellh/mapstructure v1.4.1 // indirect
	github.com/modern-go/concurrent v0.0.0-20180306012644-bacd9c7ef1dd // indirect
	github.com/modern-go/reflect2 v1.0.2 // indirect
	github.com/mohae/deepcopy v0.0.0-20170929034955-c48cc78d4826 // indirect
	github.com/patrickmn/go-cache v2.1.0+incompatible // indirect
	github.com/pelletier/go-toml v1.9.3 // indirect
	github.com/pierrec/lz4 v2.0.5+incompatible // indirect
	github.com/pmezard/go-difflib v1.0.0 // indirect
	github.com/prometheus/client_model v0.3.0 // indirect
	github.com/prometheus/common v0.42.0 // indirect
	github.com/prometheus/procfs v0.9.0 // indirect
	github.com/prysmaticlabs/fastssz v0.0.0-20220628121656-93dfe28febab // indirect
	github.com/prysmaticlabs/go-bitfield v0.0.0-20210809151128-385d8c5e3fb7 // indirect
	github.com/prysmaticlabs/gohashtree v0.0.3-alpha // indirect
	github.com/prysmaticlabs/prysm/v4 v4.0.2 // indirect
	github.com/rcrowley/go-metrics v0.0.0-20190826022208-cac0b30c2563 // indirect
	github.com/rivo/uniseg v0.4.3 // indirect
	github.com/rs/cors v1.7.0 // indirect
	github.com/russross/blackfriday/v2 v2.1.0 // indirect
	github.com/schollz/progressbar/v3 v3.3.4 // indirect
	github.com/shirou/gopsutil v3.21.11+incompatible // indirect
	github.com/sirupsen/logrus v1.9.0 // indirect
	github.com/spf13/afero v1.6.0 // indirect
	github.com/spf13/cast v1.3.1 // indirect
	github.com/spf13/jwalterweatherman v1.1.0 // indirect
	github.com/spf13/pflag v1.0.5 // indirect
	github.com/subosito/gotenv v1.2.0 // indirect
	github.com/supranational/blst v0.3.8-0.20220526154634-513d2456b344 // indirect
	github.com/syndtr/goleveldb v1.0.1-0.20220721030215-126854af5e6d // indirect
	github.com/tendermint/btcd v0.1.1 // indirect
	github.com/thomaso-mirodin/intmath v0.0.0-20160323211736-5dc6d854e46e // indirect
	github.com/tidwall/match v1.1.1 // indirect
	github.com/tidwall/pretty v1.2.0 // indirect
	github.com/tklauser/go-sysconf v0.3.11 // indirect
	github.com/tklauser/numcpus v0.6.0 // indirect
	github.com/tyler-smith/go-bip39 v1.1.0 // indirect
	github.com/uber/jaeger-client-go v2.25.0+incompatible // indirect
	github.com/urfave/cli/v2 v2.23.7 // indirect
	github.com/wealdtech/go-bytesutil v1.1.1 // indirect
	github.com/wealdtech/go-eth2-types/v2 v2.5.2 // indirect
	github.com/wealdtech/go-eth2-util v1.6.3 // indirect
	github.com/wealdtech/go-eth2-wallet-encryptor-keystorev4 v1.1.3 // indirect
	github.com/xrash/smetrics v0.0.0-20201216005158-039620a65673 // indirect
	github.com/yusufpapurcu/wmi v1.2.2 // indirect
	github.com/zondax/hid v0.9.0 // indirect
	github.com/zondax/ledger-cosmos-go v0.9.9 // indirect
	go.opencensus.io v0.24.0 // indirect
	golang.org/x/crypto v0.16.0 // indirect
	golang.org/x/net v0.19.0 // indirect
	golang.org/x/oauth2 v0.5.0 // indirect
	golang.org/x/sync v0.5.0 // indirect
	golang.org/x/sys v0.15.0 // indirect
	golang.org/x/term v0.15.0 // indirect
	golang.org/x/text v0.14.0 // indirect
	golang.org/x/time v0.0.0-20220922220347-f3bd1da661af // indirect
	golang.org/x/tools v0.16.0 // indirect
	google.golang.org/api v0.44.0 // indirect
	google.golang.org/appengine v1.6.7 // indirect
	google.golang.org/genproto v0.0.0-20210624195500-8bfb893ecb84 // indirect
	google.golang.org/grpc v1.40.0 // indirect
	google.golang.org/protobuf v1.30.0 // indirect
	gopkg.in/inf.v0 v0.9.1 // indirect
	gopkg.in/ini.v1 v1.67.0 // indirect
	gopkg.in/linkedin/goavro.v1 v1.0.5 // indirect
	gopkg.in/natefinch/lumberjack.v2 v2.0.0 // indirect
	gopkg.in/natefinch/npipe.v2 v2.0.0-20160621034901-c1b8fa8bdcce // indirect
	gopkg.in/yaml.v2 v2.4.0 // indirect
	gopkg.in/yaml.v3 v3.0.1 // indirect
	k8s.io/apimachinery v0.20.0 // indirect
	k8s.io/client-go v0.20.0 // indirect
	k8s.io/klog/v2 v2.80.0 // indirect
	k8s.io/utils v0.0.0-20201110183641-67b214c5f920 // indirect
	sigs.k8s.io/structured-merge-diff/v4 v4.0.2 // indirect
	sigs.k8s.io/yaml v1.2.0 // indirect
)

replace (
	github.com/Shopify/sarama v1.26.1 => github.com/Shopify/sarama v1.21.0
	github.com/cosmos/cosmos-sdk => gitlab.com/dee-block/bnc-cosmos-sdk v0.26.4
	github.com/grpc-ecosystem/grpc-gateway/v2 => github.com/prysmaticlabs/grpc-gateway/v2 v2.3.1-0.20210702154020-550e1cd83ec1
	github.com/syndtr/goleveldb v1.0.1-0.20220721030215-126854af5e6d => github.com/syndtr/goleveldb v1.0.1-0.20210819022825-2ae1ddf74ef7
	github.com/tendermint/go-amino => github.com/bnb-chain/bnc-go-amino v0.14.1-binance.2
	github.com/tendermint/iavl => github.com/bnb-chain/bnc-tendermint-iavl v0.12.0-binance.5
	github.com/tendermint/tendermint => github.com/bnb-chain/bnc-tendermint v0.32.3-bc.10
	github.com/zondax/ledger-cosmos-go => github.com/bnb-chain/ledger-cosmos-go v0.9.10-0.20230201065744-d644bede1667
	golang.org/x/crypto => github.com/bnb-chain/tendermint-crypto v0.0.0-20230703075311-6ffc0fd47894
)
